{
  "log": {
    "loglevel": "warning",
    "error": "error.log"
  },
  "inbounds": [
    {
      "port": 44482,
      "listen": "127.0.0.1",
      "protocol": "socks",
      "settings": {
        "udp": true
      }
    },
    {
      "tag": "http",
      "port": 44483,
      "listen": "127.0.0.1",
      "protocol": "http",
      "sniffing": {
        "enabled": true,
        "destOverride": [
          "http",
          "tls"
        ]
      },
      "settings": {
        "udp": false,
        "allowTransparent": false
      }
    }
  ],
  "outbounds": [
        {
      "protocol": "vmess",
      "settings": {
        "vnext": [
          {
            "address": "test.eu.org",
            "port": 443,
            "users": [
              {
                "id": "8fdb7732-13a7-4d83-8f05-6260c5c12701",
                "alterId": 0
              }
            ]
          }
        ]
      },
      "streamSettings": {
        "network": "ws",
        "security": "tls",
        "wsSettings": {
          "path": "/fLH5idn2iQm3Bz"
        }
      }
    },
    {
      "protocol": "freedom",
      "settings": {},
      "tag": "direct"
    },
    {
      "protocol": "blackhole",
      "settings": {},
      "tag": "block"
    }
  ],
  "routing": {
    "domainStrategy": "IPOnDemand",
    "rules": [
      {
        "type": "field",
        "outboundTag": "direct",
        "domain": [
          "geosite:cn",
          "jd.com",
          "baidu.com"
        ]
      },
      {
        "type": "field",
        "outboundTag": "direct",
        "ip": [
          "geoip:cn",
          "geoip:private"
        ]
      },
      {
        "domain": [
          "tanx.com"
        ],
        "type": "field",
        "outboundTag": "block"
      }
    ]
  },
  "dns": {
    "hosts": {
      "domain:v2fly.org": "www.vicemc.net",
      "domain:github.io": "pages.github.com",
      "domain:wikipedia.org": "www.wikimedia.org",
      "domain:shadowsocks.org": "electronicsrealm.com"
    },
    "servers": [
      "1.1.1.1",
      {
        "address": "114.114.114.114",
        "port": 53,
        "domains": [
          "geosite:cn"
        ]
      },
      "8.8.8.8",
      "localhost"
    ]
  }
}
